…
prot.table %>% 
  inner_join(dat.rna) -> dat.combined

dat.combined
```

    ## # A tibble: 22,455 × 5
    ##    gene  patient  abundance condition         count
    ##    <chr> <chr>        <dbl> <chr>             <dbl>
    ##  1 OAS2  NSCLC_22      7.01 Tumor CD103+CD39- 2620.
    ##  2 OAS2  NSCLC_22      6.97 Tumor CD103+CD39+ 2955.
    ##  3 OAS2  NSCLC_41      7.15 Tumor CD103+CD39- 1038.
    ##  4 OAS2  NSCLC_41      7.47 Tumor CD103+CD39+ 2931.
    ##  5 OAS2  NSCLC_57      6.67 Tumor CD103+CD39- 1583.
    ##  6 OAS2  NSCLC_57      6.99 Tumor CD103+CD39+ 2721.
    ##  7 OAS2  NSCLC_27      6.49 Tumor CD103+CD39-  472.
    ##  8 OAS2  NSCLC_38      7.38 Tumor CD103+CD39+ 2655.
    ##  9 OAS2  NSCLC_36      6.61 Tumor CD103+CD39- 2031.
    ## 10 OAS2  NSCLC_36      6.82 Tumor CD103+CD39+ 3084.
    ## # ℹ 22,445 more rows
…
