…
to.plot
```

    ## # A tibble: 42 × 15
    ##    ID         Description setSize enrichmentScore   NES  pvalue p.adjust  qvalue
    ##    <chr>      <chr>         <int>           <dbl> <dbl>   <dbl>    <dbl>   <dbl>
    ##  1 HALLMARK_… E2F_TARGETS      58           0.570  1.93 6.05e-5  1.92e-3 1.45e-3
    ##  2 HALLMARK_… FATTY_ACID…      56           0.567  1.90 9.87e-5  1.92e-3 1.45e-3
    ##  3 HALLMARK_… ADIPOGENES…      46           0.571  1.85 3.47e-4  4.52e-3 3.41e-3
    ##  4 HALLMARK_… GLYCOLYSIS       46           0.557  1.81 7.20e-4  7.02e-3 5.31e-3
    ##  5 HALLMARK_… MTORC1_SIG…      77           0.481  1.70 1.70e-3  1.33e-2 1.00e-2
    ##  6 HALLMARK_… OXIDATIVE_…      81           0.468  1.66 2.36e-3  1.53e-2 1.16e-2
    ##  7 HALLMARK_… XENOBIOTIC…      29           0.575  1.72 7.39e-3  4.12e-2 3.11e-2
    ##  8 HALLMARK_… E2F_TARGETS      58           0.663  2.35 2.25e-8  8.76e-7 6.86e-7
    ##  9 HALLMARK_… UV_RESPONS…      15          -0.729 -1.90 2.15e-3  2.80e-2 2.19e-2
    ## 10 HALLMARK_… UV_RESPONS…      33           0.585  1.87 1.60e-3  2.80e-2 2.19e-2
    ## # ℹ 32 more rows
    ## # ℹ 7 more variables: rank <dbl>, leading_edge <chr>, core_enrichment <chr>,
    ## #   metric <chr>, comparison <chr>, presence <dbl>, Description_ord <fct>
…
