…
Combine with DE data

``` r
dat.cors %>% 
  dplyr::select(gene, cor, p) %>% 
  inner_join(dat.DE.all, by = c("gene" = "gene.symbol")) -> dat.all.stats
```

``` r
dat.all.stats %>% 
  filter(P.Value.prot < 0.05 & p > 0.05)
```

    ## # A tibble: 688 × 16
    ##    gene     cor     p logFC.prot AveExpr.prot t.prot P.Value.prot adj.P.Val.prot
    ##    <chr>  <dbl> <dbl>      <dbl>        <dbl>  <dbl>        <dbl>          <dbl>
    ##  1 AAK1    0.37 0.173     -0.275         7.67  -3.03      0.00824         0.0773
    ##  2 ABHD1…  0.37 0.169     -0.474         6.43  -2.49      0.0245          0.160 
    ##  3 ACADSB  0.29 0.295     -0.228         5.51  -2.23      0.0405          0.215 
    ##  4 ACADSB  0.29 0.295     -0.264         5.51  -2.59      0.0202          0.0803
    ##  5 ACADVL  0.42 0.119     -0.367         7.46  -2.38      0.0303          0.325 
    ##  6 ACAP2   0.25 0.361     -0.192         5.82  -2.14      0.0484          0.150 
    ##  7 ACAT1  -0.12 0.667     -1.11          8.16  -3.58      0.00260         0.0210
    ##  8 ACO2   -0.3  0.271     -0.277         8.99  -2.41      0.0288          0.174 
    ##  9 ACO2   -0.3  0.271     -0.327         8.99  -2.84      0.0120          0.0573
    ## 10 ADA     0.35 0.206     -0.375         5.28  -2.22      0.0417          0.219 
    ## # ℹ 678 more rows
    ## # ℹ 8 more variables: B.prot <dbl>, comparison <chr>, logFC.rna <dbl>,
    ## #   AveExpr.rna <dbl>, t.rna <dbl>, P.Value.rna <dbl>, adj.P.Val.rna <dbl>,
    ## #   B.rna <dbl>
…
