…
Extract the patient info from the mat object

``` r
mat.obj <- scdb_mat("NSCLC_filt")

mat.obj@cell_metadata %>% 
  select(Patient) %>% 
  as_tibble(rownames = "cellcode") -> patients

patients
```

    ## # A tibble: 13,381 × 2
    ##    cellcode                  Patient 
    ##    <chr>                     <chr>   
    ##  1 S7109_S2_AAACCTGAGATGGCGT NSCLC_52
    ##  2 S7109_S2_AAACCTGAGCTGCAAG NSCLC_41
    ##  3 S7109_S2_AAACCTGAGGGTGTGT NSCLC_52
    ##  4 S7109_S2_AAACCTGAGTCATCCA NSCLC_41
    ##  5 S7109_S2_AAACCTGAGTGAAGAG NSCLC_41
    ##  6 S7109_S2_AAACCTGCATTGGCGC NSCLC_41
    ##  7 S7109_S2_AAACCTGGTACTCGCG NSCLC_52
    ##  8 S7109_S2_AAACCTGTCCAAACAC NSCLC_41
    ##  9 S7109_S2_AAACCTGTCGACCAGC NSCLC_52
    ## 10 S7109_S2_AAACGGGAGACTTGAA NSCLC_41
    ## # ℹ 13,371 more rows
…
## Check scores by surface expression

get the CITEseq information

``` r
mat.obj@cell_metadata %>% 
  as_tibble(rownames = "cellcode") %>% 
  select(cellcode, contains("UMIA")) -> CITE

CITE
```

    ## # A tibble: 13,381 × 9
    ##    cellcode        UMIA.CD4.1 UMIA.CD8 UMIA.CD25 UMIA.CD39 UMIA.CD103 UMIA.CD127
    ##    <chr>                <dbl>    <dbl>     <dbl>     <dbl>      <dbl>      <dbl>
    ##  1 S7109_S2_AAACC…          2      507         1         3         80          0
    ##  2 S7109_S2_AAACC…          2     1414         1         3         94          0
    ##  3 S7109_S2_AAACC…          2      584         2         0          0          7
    ##  4 S7109_S2_AAACC…          5      322         1         0          1          0
    ##  5 S7109_S2_AAACC…          5      897         1         8        125          0
    ##  6 S7109_S2_AAACC…          1      332         5         6         83          0
    ##  7 S7109_S2_AAACC…          8      271         1         1         61          0
    ##  8 S7109_S2_AAACC…          5      299         0         3        117          0
    ##  9 S7109_S2_AAACC…          2      705         3         0        122          0
    ## 10 S7109_S2_AAACG…          4      314         0         3         72          1
    ## # ℹ 13,371 more rows
    ## # ℹ 2 more variables: UMIA.mIgG1 <dbl>, UMIA.PD1 <dbl>
…
CITE %>% 
  inner_join(MC.ids) %>% 
  inner_join(patients) %>% 
  group_by(Patient) %>% 
  mutate(across(contains("UMIA"), ~(((.+1)/sum(.))*10000))) %>% 
  group_by(MetaCell, Patient) %>% 
  summarise(across(contains("UMIA"), median),
            n = n()) -> average.CITE

average.CITE
```

    ## # A tibble: 487 × 11
    ## # Groups:   MetaCell [85]
    ##    MetaCell Patient  UMIA.CD4.1 UMIA.CD8 UMIA.CD25 UMIA.CD39 UMIA.CD103
    ##    <chr>    <chr>         <dbl>    <dbl>     <dbl>     <dbl>      <dbl>
    ##  1 1        NSCLC_20       5.17     4.73      4.86     0.997     0.439 
    ##  2 1        NSCLC_31       2.16     2.26      2.71     0.733     0.355 
    ##  3 1        NSCLC_41       4.81     3.23      2.00     1.06      0.127 
    ##  4 1        NSCLC_50       5.05     5.51      3.55     1.72      0.613 
    ##  5 1        NSCLC_52       9.26     6.65      6.61     3.86      0.392 
    ##  6 1        NSCLC_57       3.58     6.74      9.08     2.11      2.36  
    ##  7 10       NSCLC_20       4.06     4.00      4.86     0.997     1.54  
    ##  8 10       NSCLC_31       2.59     4.37      6.78     1.10      0.355 
    ##  9 10       NSCLC_41       3.61     3.20      2.00     1.06      0.0633
    ## 10 10       NSCLC_50       7.58     6.33      3.55     2.59      0.613 
    ## # ℹ 477 more rows
    ## # ℹ 4 more variables: UMIA.CD127 <dbl>, UMIA.mIgG1 <dbl>, UMIA.PD1 <dbl>,
    ## #   n <int>
…
write_tsv(cor.stats, "Output/scRNAseq_Correlations_Scores_ADT.tsv")

cor.stats
```

    ## # A tibble: 98 × 8
    ##    Patient  var1     var2           cor statistic         p method     p.adj
    ##    <chr>    <chr>    <chr>        <dbl>     <dbl>     <dbl> <chr>      <dbl>
    ##  1 NSCLC_20 UMIA.CD8 dys.score    0.32      8446. 0.0418    Spearman 1      
    ##  2 NSCLC_31 UMIA.CD8 dys.score    0.31      4116  0.0773    Spearman 1      
    ##  3 NSCLC_36 UMIA.CD8 dys.score   -0.29     14753. 0.0708    Spearman 1      
    ##  4 NSCLC_41 UMIA.CD8 dys.score    0.39       944  0.084     Spearman 1      
    ##  5 NSCLC_50 UMIA.CD8 dys.score    0.093     2359. 0.659     Spearman 1      
    ##  6 NSCLC_52 UMIA.CD8 dys.score    0.62      2916. 0.0000466 Spearman 0.00359
    ##  7 NSCLC_57 UMIA.CD8 dys.score    0.48      2108. 0.00828   Spearman 0.505  
    ##  8 NSCLC_20 UMIA.CD8 cytox.score -0.3      16104. 0.0496    Spearman 1      
    ##  9 NSCLC_31 UMIA.CD8 cytox.score -0.01      6044  0.956     Spearman 1      
    ## 10 NSCLC_36 UMIA.CD8 cytox.score  0.39      6951. 0.0107    Spearman 0.621  
    ## # ℹ 88 more rows
…
