…
``` r
MC.graph <- scdb_mc2d("NSCLC_mc2d_r")

coords <- tibble( cellcode = names(MC.graph@sc_y),
                  sc.x = MC.graph@sc_x,
                  sc.y = MC.graph@sc_y)
coords
```

    ## # A tibble: 13,253 × 3
    ##    cellcode                       sc.x      sc.y
    ##    <chr>                     <dbl[1d]> <dbl[1d]>
    ##  1 S7109_S2_AAACCTGAGATGGCGT      28.3     267. 
    ##  2 S7109_S2_AAACCTGAGCTGCAAG     134.      273. 
    ##  3 S7109_S2_AAACCTGAGGGTGTGT     595.      259. 
    ##  4 S7109_S2_AAACCTGAGTCATCCA     273.       69.2
    ##  5 S7109_S2_AAACCTGAGTGAAGAG     561.      598. 
    ##  6 S7109_S2_AAACCTGCATTGGCGC     737.      700. 
    ##  7 S7109_S2_AAACCTGGTACTCGCG     401.      494. 
    ##  8 S7109_S2_AAACCTGTCCAAACAC     586.      556. 
    ##  9 S7109_S2_AAACCTGTCGACCAGC     463.      365. 
    ## 10 S7109_S2_AAACGGGAGACTTGAA     721.      646. 
    ## # ℹ 13,243 more rows
…
## Patient composition

Extract the patient info from the mat object

``` r
mat.obj <- scdb_mat("NSCLC_filt")

mat.obj@cell_metadata %>% 
  select(Patient) %>% 
  as_tibble(rownames = "cellcode") -> patients

patients
```

    ## # A tibble: 13,381 × 2
    ##    cellcode                  Patient 
    ##    <chr>                     <chr>   
    ##  1 S7109_S2_AAACCTGAGATGGCGT NSCLC_52
    ##  2 S7109_S2_AAACCTGAGCTGCAAG NSCLC_41
    ##  3 S7109_S2_AAACCTGAGGGTGTGT NSCLC_52
    ##  4 S7109_S2_AAACCTGAGTCATCCA NSCLC_41
    ##  5 S7109_S2_AAACCTGAGTGAAGAG NSCLC_41
    ##  6 S7109_S2_AAACCTGCATTGGCGC NSCLC_41
    ##  7 S7109_S2_AAACCTGGTACTCGCG NSCLC_52
    ##  8 S7109_S2_AAACCTGTCCAAACAC NSCLC_41
    ##  9 S7109_S2_AAACCTGTCGACCAGC NSCLC_52
    ## 10 S7109_S2_AAACGGGAGACTTGAA NSCLC_41
    ## # ℹ 13,371 more rows
Combine with MetaCells and normalize within samples.

``` r
mc@mc %>% 
  enframe(name = "cellcode", value = "MetaCell") %>% 
  inner_join(patients) %>% 
  count(MetaCell, Patient) %>%
  group_by(Patient)%>%
  mutate(normalized.count = (n/sum(n))*1000 ) %>% 
  mutate(MetaCell = as.factor(MetaCell) ) -> sample.counts.MC

sample.counts.MC
```

    ## # A tibble: 487 × 4
    ## # Groups:   Patient [8]
    ##    MetaCell Patient      n normalized.count
    ##    <fct>    <chr>    <int>            <dbl>
    ##  1 1        NSCLC_20     1            0.456
    ##  2 1        NSCLC_31     1            0.499
    ##  3 1        NSCLC_41   137           66.2  
    ##  4 1        NSCLC_50     5            3.97 
    ##  5 1        NSCLC_52    16           12.1  
    ##  6 1        NSCLC_57     2            1.33 
    ##  7 2        NSCLC_20     8            3.65 
    ##  8 2        NSCLC_31     2            0.999
    ##  9 2        NSCLC_36     3            1.07 
    ## 10 2        NSCLC_37     1           10.4  
    ## # ℹ 477 more rows
…
I’ll try to define the populations that I sorted on using the CITEseq
hashtag information.

Import the CITEseq information

``` r
mat.obj@cell_metadata %>% 
  as_tibble(rownames = "cellcode") %>% 
  select(cellcode, contains("UMIA")) -> CITE

CITE
```

    ## # A tibble: 13,381 × 9
    ##    cellcode        UMIA.CD4.1 UMIA.CD8 UMIA.CD25 UMIA.CD39 UMIA.CD103 UMIA.CD127
    ##    <chr>                <dbl>    <dbl>     <dbl>     <dbl>      <dbl>      <dbl>
    ##  1 S7109_S2_AAACC…          2      507         1         3         80          0
    ##  2 S7109_S2_AAACC…          2     1414         1         3         94          0
    ##  3 S7109_S2_AAACC…          2      584         2         0          0          7
    ##  4 S7109_S2_AAACC…          5      322         1         0          1          0
    ##  5 S7109_S2_AAACC…          5      897         1         8        125          0
    ##  6 S7109_S2_AAACC…          1      332         5         6         83          0
    ##  7 S7109_S2_AAACC…          8      271         1         1         61          0
    ##  8 S7109_S2_AAACC…          5      299         0         3        117          0
    ##  9 S7109_S2_AAACC…          2      705         3         0        122          0
    ## 10 S7109_S2_AAACG…          4      314         0         3         72          1
    ## # ℹ 13,371 more rows
    ## # ℹ 2 more variables: UMIA.mIgG1 <dbl>, UMIA.PD1 <dbl>
…
CITE %>% 
  inner_join(MC.ids) %>% 
  inner_join(patients) %>% 
  group_by(Patient) %>% 
  mutate(UMIA.CD39 = ((UMIA.CD39+1)/sum(UMIA.CD39))*10000,
         UMIA.CD103 = ((UMIA.CD103+1)/sum(UMIA.CD103))*10000) %>% 
  group_by(MetaCell, Patient) %>% 
  summarise(across(contains("UMIA"), median)) -> average.CITE

average.CITE
```

    ## # A tibble: 487 × 10
    ## # Groups:   MetaCell [85]
    ##    MetaCell Patient  UMIA.CD4.1 UMIA.CD8 UMIA.CD25 UMIA.CD39 UMIA.CD103
    ##    <chr>    <chr>         <dbl>    <dbl>     <dbl>     <dbl>      <dbl>
    ##  1 1        NSCLC_20        6        311       3       0.997     0.439 
    ##  2 1        NSCLC_31        4        254       1       0.733     0.355 
    ##  3 1        NSCLC_41        3        374       1       1.06      0.127 
    ##  4 1        NSCLC_50        3        380       0       1.72      0.613 
    ##  5 1        NSCLC_52        3.5      449       2       3.86      0.392 
    ##  6 1        NSCLC_57        2        395       0.5     2.11      2.36  
    ##  7 10       NSCLC_20        4.5      263       3       0.997     1.54  
    ##  8 10       NSCLC_31        5        492       4       1.10      0.355 
    ##  9 10       NSCLC_41        2        370       1       1.06      0.0633
    ## 10 10       NSCLC_50        5        437       0       2.59      0.613 
    ## # ℹ 477 more rows
    ## # ℹ 3 more variables: UMIA.CD127 <dbl>, UMIA.mIgG1 <dbl>, UMIA.PD1 <dbl>
…
