…
<img src="6-DE_testing_files/figure-gfm/unnamed-chunk-11-1.png" alt="" style="display: block; margin: auto;" />

extract and output results

``` r
qlf$table %>% 
  as_tibble() %>% 
  mutate(gene = DGE.object$genes$genes) %>% 
  mutate(FDR = p.adjust(PValue, method = "fdr")) -> DE.results

DE.results
```

    ## # A tibble: 11,031 × 6
    ##       logFC logCPM         F   PValue gene         FDR
    ##       <dbl>  <dbl>     <dbl>    <dbl> <chr>      <dbl>
    ##  1 -0.751     5.55 15.8      0.000621 A1BG     0.00848
    ##  2 -0.00385   2.80  0.000191 0.989    A1BG-AS1 0.999  
    ##  3 -2.61      2.31  6.95     0.0150   A2M      0.0838 
    ##  4 -2.34      1.75 12.4      0.00189  A2M-AS1  0.0192 
    ##  5  0.223     4.01  1.26     0.274    AAAS     0.531  
    ##  6 -0.183     2.64  0.334    0.569    AACS     0.786  
    ##  7  0.267     4.83  1.96     0.175    AAGAB    0.411  
    ##  8 -0.208     6.92  2.06     0.165    AAK1     0.398  
    ##  9 -0.757     3.21  5.08     0.0344   AAMDC    0.147  
    ## 10  0.0366    5.66  0.117    0.923    AAMP     0.985  
    ## # ℹ 11,021 more rows
…
